Final Design/cognichip/FinalSimResult/Stdout.txt.txt
Simulate
Re-run
Test your chip design in a virtual environment, validating behavior, performance, and logic before physical implementation.

Run targeted scenarios, catch design flaws early, and gain confidence in how your system will perform under real-world conditions.

Job Name
222498D0
Target
sim_unified
New Deps
Use OpenCos command

Total files: 9
Total size: 36893 bytes
Files
Add files
bandwidth_perf_monitor.sv

DEPS.yml

gradient_accumulator_top.sv

gradient_accumulator.sv

gradient_buffer.sv

gradient_compressor_top.sv

gradient_streamer.sv

gradient_writeback_buffer.sv

tb_unified_gradient_compressor.sv


Completed
26757E44
Save waveform
History
Stdout


INFO: [EDA] eda: version 0.3.10
INFO: [EDA] main: eda sim --no-color --tool verilator --seed=1 --verilate-args=-Wno-fatal --waves sim_unified; (run from /app/eda.work/26757e44-8863-43ae-9da8-e83c5ac6890b.edacmd)
INFO: [EDA] eda_config: --config-yml=eda_config_defaults.yml observed
INFO: [EDA] eda_config: using config: /app/venv/lib/python3.12/site-packages/opencos/eda_config_defaults.yml
INFO: [EDA] *** OpenCOS EDA ***
INFO: [EDA] Detected verilator (/usr/local/bin/verilator)
INFO: [EDA] sim: top-most target name: sim_unified
INFO: [EDA] exec: /usr/local/bin/verilator --binary -Wno-CASEINCOMPLETE -Wno-REALCVT -Wno-SELRANGE -Wno-TIMESCALEMOD -Wno-UNSIGNED -Wno-WIDTH -Wno-fatal --timing --assert --autoflush -sv -CFLAGS -O1 -j 7 --trace-structs --trace-params --trace-fst -top tb_unified_gradient_compressor -o sim.exe +define+SIMULATION /app/eda.work/26757e44-8863-43ae-9da8-e83c5ac6890b.edacmd/gradient_buffer.sv /app/eda.work/26757e44-8863-43ae-9da8-e83c5ac6890b.edacmd/gradient_accumulator_top.sv /app/eda.work/26757e44-8863-43ae-9da8-e83c5ac6890b.edacmd/gradient_writeback_buffer.sv /app/eda.work/26757e44-8863-43ae-9da8-e83c5ac6890b.edacmd/gradient_accumulator.sv /app/eda.work/26757e44-8863-43ae-9da8-e83c5ac6890b.edacmd/gradient_compressor_top.sv /app/eda.work/26757e44-8863-43ae-9da8-e83c5ac6890b.edacmd/bandwidth_perf_monitor.sv /app/eda.work/26757e44-8863-43ae-9da8-e83c5ac6890b.edacmd/tb_unified_gradient_compressor.sv (in eda.work/sim_unified.sim, tee_fpath='compile.log')
INFO: [EDA] PID 4399 for /usr/local/bin/verilator
%Warning-INITIALDLY: /app/eda.work/26757e44-8863-43ae-9da8-e83c5ac6890b.edacmd/tb_unified_gradient_compressor.sv:144:22: Non-blocking assignment '<=' in initial/final block
                                                                                                                       : ... This will be executed as a blocking assignment '='!
  144 |         core_address <= addr;
      |                      ^~
                     ... For warning description see https://verilator.org/warn/INITIALDLY?v=5.038
                     ... Use "/* verilator lint_off INITIALDLY */" and lint_on around source to disable this message.
%Warning-INITIALDLY: /app/eda.work/26757e44-8863-43ae-9da8-e83c5ac6890b.edacmd/tb_unified_gradient_compressor.sv:145:23: Non-blocking assignment '<=' in initial/final block
                                                                                                                       : ... This will be executed as a blocking assignment '='!
  145 |         core_gradient <= grad;
      |                       ^~
%Warning-INITIALDLY: /app/eda.work/26757e44-8863-43ae-9da8-e83c5ac6890b.edacmd/tb_unified_gradient_compressor.sv:146:20: Non-blocking assignment '<=' in initial/final block
                                                                                                                       : ... This will be executed as a blocking assignment '='!
  146 |         core_valid <= 1'b1;
      |                    ^~
%Warning-INITIALDLY: /app/eda.work/26757e44-8863-43ae-9da8-e83c5ac6890b.edacmd/tb_unified_gradient_compressor.sv:150:20: Non-blocking assignment '<=' in initial/final block
                                                                                                                       : ... This will be executed as a blocking assignment '='!
  150 |         core_valid <= 1'b0;
      |                    ^~
%Warning-INITIALDLY: /app/eda.work/26757e44-8863-43ae-9da8-e83c5ac6890b.edacmd/tb_unified_gradient_compressor.sv:155:20: Non-blocking assignment '<=' in initial/final block
                                                                                                                       : ... This will be executed as a blocking assignment '='!
  155 |         core_valid <= 1'b0;
      |                    ^~
make: Entering directory '/app/eda.work/26757e44-8863-43ae-9da8-e83c5ac6890b.edacmd/eda.work/sim_unified.sim/obj_dir'
ccache g++ -Os  -I.  -MMD -I/usr/local/share/verilator/include -I/usr/local/share/verilator/include/vltstd -DVM_COVERAGE=0 -DVM_SC=0 -DVM_TIMING=1 -DVM_TRACE=1 -DVM_TRACE_FST=1 -DVM_TRACE_VCD=0 -DVM_TRACE_SAIF=0 -faligned-new -fcf-protection=none -Wno-bool-operation -Wno-shadow -Wno-sign-compare -Wno-subobject-linkage -Wno-tautological-compare -Wno-uninitialized -Wno-unused-but-set-parameter -Wno-unused-but-set-variable -Wno-unused-parameter -Wno-unused-variable    -O1 -DVL_TIME_CONTEXT   -fcoroutines -c -o verilated.o /usr/local/share/verilator/include/verilated.cpp
ccache g++ -Os  -I.  -MMD -I/usr/local/share/verilator/include -I/usr/local/share/verilator/include/vltstd -DVM_COVERAGE=0 -DVM_SC=0 -DVM_TIMING=1 -DVM_TRACE=1 -DVM_TRACE_FST=1 -DVM_TRACE_VCD=0 -DVM_TRACE_SAIF=0 -faligned-new -fcf-protection=none -Wno-bool-operation -Wno-shadow -Wno-sign-compare -Wno-subobject-linkage -Wno-tautological-compare -Wno-uninitialized -Wno-unused-but-set-parameter -Wno-unused-but-set-variable -Wno-unused-parameter -Wno-unused-variable    -O1 -DVL_TIME_CONTEXT   -fcoroutines -c -o verilated_fst_c.o /usr/local/share/verilator/include/verilated_fst_c.cpp
ccache g++ -Os  -I.  -MMD -I/usr/local/share/verilator/include -I/usr/local/share/verilator/include/vltstd -DVM_COVERAGE=0 -DVM_SC=0 -DVM_TIMING=1 -DVM_TRACE=1 -DVM_TRACE_FST=1 -DVM_TRACE_VCD=0 -DVM_TRACE_SAIF=0 -faligned-new -fcf-protection=none -Wno-bool-operation -Wno-shadow -Wno-sign-compare -Wno-subobject-linkage -Wno-tautological-compare -Wno-uninitialized -Wno-unused-but-set-parameter -Wno-unused-but-set-variable -Wno-unused-parameter -Wno-unused-variable    -O1 -DVL_TIME_CONTEXT   -fcoroutines -c -o verilated_timing.o /usr/local/share/verilator/include/verilated_timing.cpp
ccache g++ -Os  -I.  -MMD -I/usr/local/share/verilator/include -I/usr/local/share/verilator/include/vltstd -DVM_COVERAGE=0 -DVM_SC=0 -DVM_TIMING=1 -DVM_TRACE=1 -DVM_TRACE_FST=1 -DVM_TRACE_VCD=0 -DVM_TRACE_SAIF=0 -faligned-new -fcf-protection=none -Wno-bool-operation -Wno-shadow -Wno-sign-compare -Wno-subobject-linkage -Wno-tautological-compare -Wno-uninitialized -Wno-unused-but-set-parameter -Wno-unused-but-set-variable -Wno-unused-parameter -Wno-unused-variable    -O1 -DVL_TIME_CONTEXT   -fcoroutines -c -o verilated_threads.o /usr/local/share/verilator/include/verilated_threads.cpp
ccache g++ -Os  -I.  -MMD -I/usr/local/share/verilator/include -I/usr/local/share/verilator/include/vltstd -DVM_COVERAGE=0 -DVM_SC=0 -DVM_TIMING=1 -DVM_TRACE=1 -DVM_TRACE_FST=1 -DVM_TRACE_VCD=0 -DVM_TRACE_SAIF=0 -faligned-new -fcf-protection=none -Wno-bool-operation -Wno-shadow -Wno-sign-compare -Wno-subobject-linkage -Wno-tautological-compare -Wno-uninitialized -Wno-unused-but-set-parameter -Wno-unused-but-set-variable -Wno-unused-parameter -Wno-unused-variable    -O1 -DVL_TIME_CONTEXT   -fcoroutines -x c++-header Vtb_unified_gradient_compressor__pch.h -o Vtb_unified_gradient_compressor__pch.h.fast.gch
ccache g++   -I.  -MMD -I/usr/local/share/verilator/include -I/usr/local/share/verilator/include/vltstd -DVM_COVERAGE=0 -DVM_SC=0 -DVM_TIMING=1 -DVM_TRACE=1 -DVM_TRACE_FST=1 -DVM_TRACE_VCD=0 -DVM_TRACE_SAIF=0 -faligned-new -fcf-protection=none -Wno-bool-operation -Wno-shadow -Wno-sign-compare -Wno-subobject-linkage -Wno-tautological-compare -Wno-uninitialized -Wno-unused-but-set-parameter -Wno-unused-but-set-variable -Wno-unused-parameter -Wno-unused-variable    -O1 -DVL_TIME_CONTEXT   -fcoroutines -x c++-header Vtb_unified_gradient_compressor__pch.h -o Vtb_unified_gradient_compressor__pch.h.slow.gch
echo "" > Vtb_unified_gradient_compressor__ALL.verilator_deplist.tmp
ccache g++ -Os  -I.  -MMD -I/usr/local/share/verilator/include -I/usr/local/share/verilator/include/vltstd -DVM_COVERAGE=0 -DVM_SC=0 -DVM_TIMING=1 -DVM_TRACE=1 -DVM_TRACE_FST=1 -DVM_TRACE_VCD=0 -DVM_TRACE_SAIF=0 -faligned-new -fcf-protection=none -Wno-bool-operation -Wno-shadow -Wno-sign-compare -Wno-subobject-linkage -Wno-tautological-compare -Wno-uninitialized -Wno-unused-but-set-parameter -Wno-unused-but-set-variable -Wno-unused-parameter -Wno-unused-variable    -O1 -DVL_TIME_CONTEXT   -fcoroutines -include Vtb_unified_gradient_compressor__pch.h.fast -c -o Vtb_unified_gradient_compressor.o Vtb_unified_gradient_compressor.cpp
ccache g++ -Os  -I.  -MMD -I/usr/local/share/verilator/include -I/usr/local/share/verilator/include/vltstd -DVM_COVERAGE=0 -DVM_SC=0 -DVM_TIMING=1 -DVM_TRACE=1 -DVM_TRACE_FST=1 -DVM_TRACE_VCD=0 -DVM_TRACE_SAIF=0 -faligned-new -fcf-protection=none -Wno-bool-operation -Wno-shadow -Wno-sign-compare -Wno-subobject-linkage -Wno-tautological-compare -Wno-uninitialized -Wno-unused-but-set-parameter -Wno-unused-but-set-variable -Wno-unused-parameter -Wno-unused-variable    -O1 -DVL_TIME_CONTEXT   -fcoroutines -include Vtb_unified_gradient_compressor__pch.h.fast -c -o Vtb_unified_gradient_compressor___024root__DepSet_h56ab7896__0.o Vtb_unified_gradient_compressor___024root__DepSet_h56ab7896__0.cpp
ccache g++ -Os  -I.  -MMD -I/usr/local/share/verilator/include -I/usr/local/share/verilator/include/vltstd -DVM_COVERAGE=0 -DVM_SC=0 -DVM_TIMING=1 -DVM_TRACE=1 -DVM_TRACE_FST=1 -DVM_TRACE_VCD=0 -DVM_TRACE_SAIF=0 -faligned-new -fcf-protection=none -Wno-bool-operation -Wno-shadow -Wno-sign-compare -Wno-subobject-linkage -Wno-tautological-compare -Wno-uninitialized -Wno-unused-but-set-parameter -Wno-unused-but-set-variable -Wno-unused-parameter -Wno-unused-variable    -O1 -DVL_TIME_CONTEXT   -fcoroutines -include Vtb_unified_gradient_compressor__pch.h.fast -c -o Vtb_unified_gradient_compressor___024root__DepSet_h28073ae0__0.o Vtb_unified_gradient_compressor___024root__DepSet_h28073ae0__0.cpp
ccache g++ -Os  -I.  -MMD -I/usr/local/share/verilator/include -I/usr/local/share/verilator/include/vltstd -DVM_COVERAGE=0 -DVM_SC=0 -DVM_TIMING=1 -DVM_TRACE=1 -DVM_TRACE_FST=1 -DVM_TRACE_VCD=0 -DVM_TRACE_SAIF=0 -faligned-new -fcf-protection=none -Wno-bool-operation -Wno-shadow -Wno-sign-compare -Wno-subobject-linkage -Wno-tautological-compare -Wno-uninitialized -Wno-unused-but-set-parameter -Wno-unused-but-set-variable -Wno-unused-parameter -Wno-unused-variable    -O1 -DVL_TIME_CONTEXT   -fcoroutines -include Vtb_unified_gradient_compressor__pch.h.fast -c -o Vtb_unified_gradient_compressor___024root__DepSet_h28073ae0__1.o Vtb_unified_gradient_compressor___024root__DepSet_h28073ae0__1.cpp
ccache g++ -Os  -I.  -MMD -I/usr/local/share/verilator/include -I/usr/local/share/verilator/include/vltstd -DVM_COVERAGE=0 -DVM_SC=0 -DVM_TIMING=1 -DVM_TRACE=1 -DVM_TRACE_FST=1 -DVM_TRACE_VCD=0 -DVM_TRACE_SAIF=0 -faligned-new -fcf-protection=none -Wno-bool-operation -Wno-shadow -Wno-sign-compare -Wno-subobject-linkage -Wno-tautological-compare -Wno-uninitialized -Wno-unused-but-set-parameter -Wno-unused-but-set-variable -Wno-unused-parameter -Wno-unused-variable    -O1 -DVL_TIME_CONTEXT   -fcoroutines -include Vtb_unified_gradient_compressor__pch.h.fast -c -o Vtb_unified_gradient_compressor__main.o Vtb_unified_gradient_compressor__main.cpp
ccache g++ -Os  -I.  -MMD -I/usr/local/share/verilator/include -I/usr/local/share/verilator/include/vltstd -DVM_COVERAGE=0 -DVM_SC=0 -DVM_TIMING=1 -DVM_TRACE=1 -DVM_TRACE_FST=1 -DVM_TRACE_VCD=0 -DVM_TRACE_SAIF=0 -faligned-new -fcf-protection=none -Wno-bool-operation -Wno-shadow -Wno-sign-compare -Wno-subobject-linkage -Wno-tautological-compare -Wno-uninitialized -Wno-unused-but-set-parameter -Wno-unused-but-set-variable -Wno-unused-parameter -Wno-unused-variable    -O1 -DVL_TIME_CONTEXT   -fcoroutines -include Vtb_unified_gradient_compressor__pch.h.fast -c -o Vtb_unified_gradient_compressor__Trace__0.o Vtb_unified_gradient_compressor__Trace__0.cpp
ccache g++   -I.  -MMD -I/usr/local/share/verilator/include -I/usr/local/share/verilator/include/vltstd -DVM_COVERAGE=0 -DVM_SC=0 -DVM_TIMING=1 -DVM_TRACE=1 -DVM_TRACE_FST=1 -DVM_TRACE_VCD=0 -DVM_TRACE_SAIF=0 -faligned-new -fcf-protection=none -Wno-bool-operation -Wno-shadow -Wno-sign-compare -Wno-subobject-linkage -Wno-tautological-compare -Wno-uninitialized -Wno-unused-but-set-parameter -Wno-unused-but-set-variable -Wno-unused-parameter -Wno-unused-variable    -O1 -DVL_TIME_CONTEXT   -fcoroutines -include Vtb_unified_gradient_compressor__pch.h.slow -c -o Vtb_unified_gradient_compressor__ConstPool_0.o Vtb_unified_gradient_compressor__ConstPool_0.cpp
ccache g++   -I.  -MMD -I/usr/local/share/verilator/include -I/usr/local/share/verilator/include/vltstd -DVM_COVERAGE=0 -DVM_SC=0 -DVM_TIMING=1 -DVM_TRACE=1 -DVM_TRACE_FST=1 -DVM_TRACE_VCD=0 -DVM_TRACE_SAIF=0 -faligned-new -fcf-protection=none -Wno-bool-operation -Wno-shadow -Wno-sign-compare -Wno-subobject-linkage -Wno-tautological-compare -Wno-uninitialized -Wno-unused-but-set-parameter -Wno-unused-but-set-variable -Wno-unused-parameter -Wno-unused-variable    -O1 -DVL_TIME_CONTEXT   -fcoroutines -include Vtb_unified_gradient_compressor__pch.h.slow -c -o Vtb_unified_gradient_compressor___024root__Slow.o Vtb_unified_gradient_compressor___024root__Slow.cpp
ccache g++   -I.  -MMD -I/usr/local/share/verilator/include -I/usr/local/share/verilator/include/vltstd -DVM_COVERAGE=0 -DVM_SC=0 -DVM_TIMING=1 -DVM_TRACE=1 -DVM_TRACE_FST=1 -DVM_TRACE_VCD=0 -DVM_TRACE_SAIF=0 -faligned-new -fcf-protection=none -Wno-bool-operation -Wno-shadow -Wno-sign-compare -Wno-subobject-linkage -Wno-tautological-compare -Wno-uninitialized -Wno-unused-but-set-parameter -Wno-unused-but-set-variable -Wno-unused-parameter -Wno-unused-variable    -O1 -DVL_TIME_CONTEXT   -fcoroutines -include Vtb_unified_gradient_compressor__pch.h.slow -c -o Vtb_unified_gradient_compressor___024root__DepSet_h56ab7896__0__Slow.o Vtb_unified_gradient_compressor___024root__DepSet_h56ab7896__0__Slow.cpp
ccache g++   -I.  -MMD -I/usr/local/share/verilator/include -I/usr/local/share/verilator/include/vltstd -DVM_COVERAGE=0 -DVM_SC=0 -DVM_TIMING=1 -DVM_TRACE=1 -DVM_TRACE_FST=1 -DVM_TRACE_VCD=0 -DVM_TRACE_SAIF=0 -faligned-new -fcf-protection=none -Wno-bool-operation -Wno-shadow -Wno-sign-compare -Wno-subobject-linkage -Wno-tautological-compare -Wno-uninitialized -Wno-unused-but-set-parameter -Wno-unused-but-set-variable -Wno-unused-parameter -Wno-unused-variable    -O1 -DVL_TIME_CONTEXT   -fcoroutines -include Vtb_unified_gradient_compressor__pch.h.slow -c -o Vtb_unified_gradient_compressor___024root__DepSet_h28073ae0__0__Slow.o Vtb_unified_gradient_compressor___024root__DepSet_h28073ae0__0__Slow.cpp
ccache g++   -I.  -MMD -I/usr/local/share/verilator/include -I/usr/local/share/verilator/include/vltstd -DVM_COVERAGE=0 -DVM_SC=0 -DVM_TIMING=1 -DVM_TRACE=1 -DVM_TRACE_FST=1 -DVM_TRACE_VCD=0 -DVM_TRACE_SAIF=0 -faligned-new -fcf-protection=none -Wno-bool-operation -Wno-shadow -Wno-sign-compare -Wno-subobject-linkage -Wno-tautological-compare -Wno-uninitialized -Wno-unused-but-set-parameter -Wno-unused-but-set-variable -Wno-unused-parameter -Wno-unused-variable    -O1 -DVL_TIME_CONTEXT   -fcoroutines -include Vtb_unified_gradient_compressor__pch.h.slow -c -o Vtb_unified_gradient_compressor__Syms.o Vtb_unified_gradient_compressor__Syms.cpp
ccache g++   -I.  -MMD -I/usr/local/share/verilator/include -I/usr/local/share/verilator/include/vltstd -DVM_COVERAGE=0 -DVM_SC=0 -DVM_TIMING=1 -DVM_TRACE=1 -DVM_TRACE_FST=1 -DVM_TRACE_VCD=0 -DVM_TRACE_SAIF=0 -faligned-new -fcf-protection=none -Wno-bool-operation -Wno-shadow -Wno-sign-compare -Wno-subobject-linkage -Wno-tautological-compare -Wno-uninitialized -Wno-unused-but-set-parameter -Wno-unused-but-set-variable -Wno-unused-parameter -Wno-unused-variable    -O1 -DVL_TIME_CONTEXT   -fcoroutines -include Vtb_unified_gradient_compressor__pch.h.slow -c -o Vtb_unified_gradient_compressor__Trace__0__Slow.o Vtb_unified_gradient_compressor__Trace__0__Slow.cpp
ccache g++   -I.  -MMD -I/usr/local/share/verilator/include -I/usr/local/share/verilator/include/vltstd -DVM_COVERAGE=0 -DVM_SC=0 -DVM_TIMING=1 -DVM_TRACE=1 -DVM_TRACE_FST=1 -DVM_TRACE_VCD=0 -DVM_TRACE_SAIF=0 -faligned-new -fcf-protection=none -Wno-bool-operation -Wno-shadow -Wno-sign-compare -Wno-subobject-linkage -Wno-tautological-compare -Wno-uninitialized -Wno-unused-but-set-parameter -Wno-unused-but-set-variable -Wno-unused-parameter -Wno-unused-variable    -O1 -DVL_TIME_CONTEXT   -fcoroutines -include Vtb_unified_gradient_compressor__pch.h.slow -c -o Vtb_unified_gradient_compressor__TraceDecls__0__Slow.o Vtb_unified_gradient_compressor__TraceDecls__0__Slow.cpp
g++    verilated.o verilated_fst_c.o verilated_timing.o verilated_threads.o Vtb_unified_gradient_compressor__ALL.a   -lz  -pthread -lpthread -latomic   -o sim.exe
rm Vtb_unified_gradient_compressor__ALL.verilator_deplist.tmp
make: Leaving directory '/app/eda.work/26757e44-8863-43ae-9da8-e83c5ac6890b.edacmd/eda.work/sim_unified.sim/obj_dir'
- V e r i l a t i o n   R e p o r t: Verilator 5.038 2025-07-08 rev v5.038
- Verilator: Built from 0.242 MB sources in 8 modules, into 1.541 MB in 13 C++ files needing 0.000 MB
- Verilator: Walltime 10.085 s (elab=0.003, cvt=0.127, bld=9.932); cpu 0.174 s on 7 threads; alloced 64.008 MB
INFO: [EDA] subprocess_run_background: wrote: /app/eda.work/26757e44-8863-43ae-9da8-e83c5ac6890b.edacmd/eda.work/sim_unified.sim/compile.log
INFO: [EDA] Tool - verilator, total counts: 5 tool warnings, 0 tool errors
INFO: [EDA] exec: ./obj_dir/sim.exe +trace +verilator+seed+1 (in eda.work/sim_unified.sim, tee_fpath='sim.log')
INFO: [EDA] PID 4528 for ./obj_dir/sim.exe

======================================================================
     DETAILED WAVEFORM ANALYSIS - All 5 Writeback Mechanisms
======================================================================


======================================================================
 TEST 1: DIRECT TRIGGER - Large gradients bypass L1 cache
======================================================================
[65000] 🔴 L1_DIRECT: #1 addr=0x1000 grad=100 -> L2 FIFO (bypassing L1)
[75000] ▶️  INPUT: addr=0x1000 grad=100 (large gradient, direct path)
[75000] 🔴 L1_DIRECT: #2 addr=0x1001 grad=100 -> L2 FIFO (bypassing L1)
[85000] ▶️  INPUT: addr=0x1001 grad=100 (large gradient, direct path)
[85000] 🔴 L1_DIRECT: #3 addr=0x1002 grad=100 -> L2 FIFO (bypassing L1)
[95000] ▶️  INPUT: addr=0x1002 grad=100 (large gradient, direct path)
[95000] 🔴 L1_DIRECT: #4 addr=0x1003 grad=100 -> L2 FIFO (bypassing L1)
[105000] ▶️  INPUT: addr=0x1003 grad=100 (large gradient, direct path)
[105000] 🔴 L1_DIRECT: #5 addr=0x1004 grad=100 -> L2 FIFO (bypassing L1)
[115000] ▶️  INPUT: addr=0x1004 grad=100 (large gradient, direct path)
[115000] 🔴 L1_DIRECT: #6 addr=0x1005 grad=100 -> L2 FIFO (bypassing L1)
[125000] ▶️  INPUT: addr=0x1005 grad=100 (large gradient, direct path)
[125000] 🔴 L1_DIRECT: #7 addr=0x1006 grad=100 -> L2 FIFO (bypassing L1)
[135000] ▶️  INPUT: addr=0x1006 grad=100 (large gradient, direct path)
[135000] 🔴 L1_DIRECT: #8 addr=0x1007 grad=100 -> L2 FIFO (bypassing L1)
[145000] ▶️  INPUT: addr=0x1007 grad=100 (large gradient, direct path)
[195000] ✅ TEST 1 COMPLETE: 8 direct triggers sent to FIFO


======================================================================
 TEST 2: ACCUMULATION THRESHOLD - Small gradients accumulate until >= THRESHOLD
======================================================================
[205000] ▶️  INPUT: addr=0x2000 grad=6 (accumulate iteration 1)
[215000] ▶️  INPUT: addr=0x2000 grad=6 (accumulate iteration 2)
[225000] ▶️  INPUT: addr=0x2000 grad=6 (accumulate iteration 3)
[235000] ▶️  INPUT: addr=0x2000 grad=6 (accumulate iteration 4)
[245000] ▶️  INPUT: addr=0x2000 grad=6 (accumulate iteration 5)
[255000] ▶️  INPUT: addr=0x2000 grad=6 (accumulate iteration 6)
[265000] ▶️  INPUT: addr=0x2000 grad=6 (accumulate iteration 7)
[275000] ▶️  INPUT: addr=0x2000 grad=6 (accumulate iteration 8)
[275000] 🟡 L1_ACCUM_OVERFLOW: #1 addr=0x2000 |accum| >= THRESHOLD -> L2 FIFO
[285000] ▶️  INPUT: addr=0x2000 grad=6 (accumulate iteration 9)
[295000] ▶️  INPUT: addr=0x2000 grad=6 (accumulate iteration 10)
[345000] ✅ TEST 2 COMPLETE: Accumulation crossed threshold


======================================================================
 TEST 3: MAX_UPDATES FORCE-FLUSH - 255 small updates trigger flush
======================================================================
[355000] ▶️  INPUT: addr=0x3000 grad=1 (tiny gradient 1/255)
[835000] 🟡 L1_ACCUM_OVERFLOW: #2 addr=0x3000 |accum| >= THRESHOLD -> L2 FIFO
[855000] ▶️  INPUT: addr=0x3000 grad=1 (tiny gradient 51/255)
[1335000] 🟡 L1_ACCUM_OVERFLOW: #3 addr=0x3000 |accum| >= THRESHOLD -> L2 FIFO
[1355000] ▶️  INPUT: addr=0x3000 grad=1 (tiny gradient 101/255)
[1835000] 🟡 L1_ACCUM_OVERFLOW: #4 addr=0x3000 |accum| >= THRESHOLD -> L2 FIFO
[1855000] ▶️  INPUT: addr=0x3000 grad=1 (tiny gradient 151/255)
[2335000] 🟡 L1_ACCUM_OVERFLOW: #5 addr=0x3000 |accum| >= THRESHOLD -> L2 FIFO
[2355000] ▶️  INPUT: addr=0x3000 grad=1 (tiny gradient 201/255)
[2835000] 🟡 L1_ACCUM_OVERFLOW: #6 addr=0x3000 |accum| >= THRESHOLD -> L2 FIFO
[2855000] ▶️  INPUT: addr=0x3000 grad=1 (tiny gradient 251/255)
[2895000] ▶️  INPUT: addr=0x3000 grad=1 (tiny gradient 255/255)
[2945000] ✅ TEST 3 COMPLETE: MAX_UPDATES force-flush triggered


======================================================================
 TEST 4: EVICTION - Tag conflicts cause victim eviction to FIFO
======================================================================
Strategy: Fill all 4 ways of a set, then add 5th entry -> eviction!
Phase 1: Fill all 4 ways of Set 0
[2955000] ▶️  INPUT: addr=0x0000 grad=10 (Fill way 0 of set 0)
[2965000] ▶️  INPUT: addr=0x0020 grad=10 (Fill way 1 of set 0)
[2965000] 🔵 L1_EVICTION: #1 addr=0x0040 tag conflict -> victim to L2 FIFO
[2975000] ▶️  INPUT: addr=0x0040 grad=10 (Fill way 2 of set 0)
[2975000] 🔵 L1_EVICTION: #2 addr=0x0060 tag conflict -> victim to L2 FIFO
[2985000] ▶️  INPUT: addr=0x0060 grad=10 (Fill way 3 of set 0)
[2985000] 📦 L2_BURST_READY: fifo_count=16 >= BURST_SIZE=16, starting drain to DRAM
[2995000] 🟢 L3_DRAM_WRITE: #1 addr=0x1000 value=100 (l2_fifo_count=16)
[3005000] 🟢 L3_DRAM_WRITE: #2 addr=0x1001 value=100 (l2_fifo_count=15)

Phase 2: Add 5th, 6th, 7th, 8th entries -> trigger evictions!
[3015000] 🔵 L1_EVICTION: #3 addr=0x0080 tag conflict -> victim to L2 FIFO
[3015000] 🟢 L3_DRAM_WRITE: #3 addr=0x1002 value=100 (l2_fifo_count=14)
[3025000] ▶️  INPUT: addr=0x0080 grad=15 (NEW entry 1 -> EVICTION!)
[3025000] 🟢 L3_DRAM_WRITE: #4 addr=0x1003 value=100 (l2_fifo_count=14)
[3035000] 🔵 L1_EVICTION: #4 addr=0x00a0 tag conflict -> victim to L2 FIFO
[3035000] 🟢 L3_DRAM_WRITE: #5 addr=0x1004 value=100 (l2_fifo_count=13)
[3045000] ▶️  INPUT: addr=0x00a0 grad=15 (NEW entry 2 -> EVICTION!)
[3045000] 🟢 L3_DRAM_WRITE: #6 addr=0x1005 value=100 (l2_fifo_count=13)
[3055000] 🔵 L1_EVICTION: #5 addr=0x00c0 tag conflict -> victim to L2 FIFO
[3055000] 🟢 L3_DRAM_WRITE: #7 addr=0x1006 value=100 (l2_fifo_count=12)
[3065000] ▶️  INPUT: addr=0x00c0 grad=15 (NEW entry 3 -> EVICTION!)
[3065000] 🟢 L3_DRAM_WRITE: #8 addr=0x1007 value=100 (l2_fifo_count=12)
[3075000] 🔵 L1_EVICTION: #6 addr=0x00e0 tag conflict -> victim to L2 FIFO
[3075000] 🟢 L3_DRAM_WRITE: #9 addr=0x2000 value=54 (l2_fifo_count=11)
[3085000] ▶️  INPUT: addr=0x00e0 grad=15 (NEW entry 4 -> EVICTION!)
[3085000] 🟢 L3_DRAM_WRITE: #10 addr=0x3000 value=50 (l2_fifo_count=11)
[3095000] 🟢 L3_DRAM_WRITE: #11 addr=0x3000 value=50 (l2_fifo_count=10)
[3105000] 🟢 L3_DRAM_WRITE: #12 addr=0x3000 value=50 (l2_fifo_count=9)
[3115000] 🟢 L3_DRAM_WRITE: #13 addr=0x3000 value=50 (l2_fifo_count=8)
[3125000] 🟢 L3_DRAM_WRITE: #14 addr=0x3000 value=50 (l2_fifo_count=7)
[3135000] 🟢 L3_DRAM_WRITE: #15 addr=0x0020 value=10 (l2_fifo_count=6)
[3145000] ✅ TEST 4 COMPLETE: 6 evictions due to tag conflicts


======================================================================
 TEST 5: FIFO BURST - Accumulate 16+ entries, then batch write to DRAM
======================================================================
Current FIFO count before burst: 5
Pushing 11 more large gradients to trigger burst...
[3145000] 🔴 L1_DIRECT: #9 addr=0x5000 grad=120 -> L2 FIFO (bypassing L1)
[3145000] 🟢 L3_DRAM_WRITE: #16 addr=0x0000 value=10 (l2_fifo_count=5)
[3155000] ▶️  INPUT: addr=0x5000 grad=120 (burst entry 1)
[3155000] 🔴 L1_DIRECT: #10 addr=0x5001 grad=120 -> L2 FIFO (bypassing L1)
[3155000] 🟢 L3_DRAM_WRITE: #17 addr=0x3000 value=5 (l2_fifo_count=5)
[3165000] ▶️  INPUT: addr=0x5001 grad=120 (burst entry 2)
[3165000] 🔴 L1_DIRECT: #11 addr=0x5002 grad=120 -> L2 FIFO (bypassing L1)
[3165000] 🟢 L3_DRAM_WRITE: #18 addr=0x2000 value=6 (l2_fifo_count=5)
[3175000] ▶️  INPUT: addr=0x5002 grad=120 (burst entry 3)
[3175000] 🔴 L1_DIRECT: #12 addr=0x5003 grad=120 -> L2 FIFO (bypassing L1)
[3175000] 🟢 L3_DRAM_WRITE: #19 addr=0x0040 value=10 (l2_fifo_count=5)
[3185000] ▶️  INPUT: addr=0x5003 grad=120 (burst entry 4)
[3185000] 🔴 L1_DIRECT: #13 addr=0x5004 grad=120 -> L2 FIFO (bypassing L1)
[3185000] 🟢 L3_DRAM_WRITE: #20 addr=0x0060 value=10 (l2_fifo_count=5)
[3195000] ▶️  INPUT: addr=0x5004 grad=120 (burst entry 5)
[3195000] 🔴 L1_DIRECT: #14 addr=0x5005 grad=120 -> L2 FIFO (bypassing L1)
[3195000] 🟢 L3_DRAM_WRITE: #21 addr=0x5000 value=120 (l2_fifo_count=5)
[3205000] ▶️  INPUT: addr=0x5005 grad=120 (burst entry 6)
[3205000] 🔴 L1_DIRECT: #15 addr=0x5006 grad=120 -> L2 FIFO (bypassing L1)
[3205000] 🟢 L3_DRAM_WRITE: #22 addr=0x5001 value=120 (l2_fifo_count=5)
[3215000] ▶️  INPUT: addr=0x5006 grad=120 (burst entry 7)
[3215000] 🔴 L1_DIRECT: #16 addr=0x5007 grad=120 -> L2 FIFO (bypassing L1)
[3215000] 🟢 L3_DRAM_WRITE: #23 addr=0x5002 value=120 (l2_fifo_count=5)
[3225000] ▶️  INPUT: addr=0x5007 grad=120 (burst entry 8)
[3225000] 🔴 L1_DIRECT: #17 addr=0x5008 grad=120 -> L2 FIFO (bypassing L1)
[3225000] 🟢 L3_DRAM_WRITE: #24 addr=0x5003 value=120 (l2_fifo_count=5)
[3235000] ▶️  INPUT: addr=0x5008 grad=120 (burst entry 9)
[3235000] 🔴 L1_DIRECT: #18 addr=0x5009 grad=120 -> L2 FIFO (bypassing L1)
[3235000] 🟢 L3_DRAM_WRITE: #25 addr=0x5004 value=120 (l2_fifo_count=5)
[3245000] ▶️  INPUT: addr=0x5009 grad=120 (burst entry 10)
